{
    "total": 131,
    "pageCount": 14,
    "page": 8,
    "pageSize": 10,
    "rows": [
        {
            "maxPageSize": 100,
            "pagesize": 20,
            "page": 1,
            "total": 0,
            "sort": null,
            "order": "DESC",
            "paramsMap": {},
            "profileId": null,
            "id": 233,
            "demandId": 213,
            "bizMethod": "UPDATE_PAYMENT_COMPANY",
            "bizData": "{\"bizType\": \"ITzhichi\", \"orderNo\": \"K39516468279122\", \"createdBy\": \"DELETE\", \"updatedBy\": \"DELETE\", \"createdTime\": 1536891259140, \"operationBy\": null, \"updatedTime\": 1536891259140}",
            "processIndex": 1,
            "processState": 12,
            "createdTime": "2018-09-14 10:14:19",
            "createdBy": "DELETE",
            "defaultSort": null,
            "validSortFields": null,
            "offset": 0,
            "start": 1,
            "end": 20,
            "sortFieldValid": false,
            "totalPage": 0,
            "maxPageNumber": 1,
            "previousPageNumber": 1,
            "nextPageNumber": 1
        },
        {
            "maxPageSize": 100,
            "pagesize": 20,
            "page": 1,
            "total": 0,
            "sort": null,
            "order": "DESC",
            "paramsMap": {},
            "profileId": null,
            "id": 232,
            "demandId": 212,
            "bizMethod": "KH3_INVALID_APPLY_ORDER",
            "bizData": "{\"serialNo\": \"20180129132340903\", \"createdBy\": \"ITzhichi\", \"updatedBy\": \"ITzhichi\", \"createdTime\": 1536890380153, \"operationBy\": null, \"updatedTime\": 1536890380153}",
            "processIndex": 1,
            "processState": 12,
            "createdTime": "2018-09-14 09:59:40",
            "createdBy": "ITzhichi",
            "defaultSort": null,
            "validSortFields": null,
            "offset": 0,
            "start": 1,
            "end": 20,
            "sortFieldValid": false,
            "totalPage": 0,
            "maxPageNumber": 1,
            "previousPageNumber": 1,
            "nextPageNumber": 1
        },
        {
            "maxPageSize": 100,
            "pagesize": 20,
            "page": 1,
            "total": 0,
            "sort": null,
            "order": "DESC",
            "paramsMap": {},
            "profileId": null,
            "id": 231,
            "demandId": 211,
            "bizMethod": "UPDATE_PAYMENT_COMPANY",
            "bizData": "{\"dateStr\": \"913\", \"createdBy\": \"ITzhichi\", \"profileId\": \"10203\", \"updatedBy\": \"ITzhichi\", \"createdTime\": 1536835740843, \"lineOrderNo\": null, \"operationBy\": null, \"updatedTime\": 1536835740843, \"trailerOrderNo\": \"DXT43743536649427\", \"paymentCompanyName\": \"法国\"}",
            "processIndex": 1,
            "processState": 12,
            "createdTime": "2018-09-13 18:49:01",
            "createdBy": "ITzhichi",
            "defaultSort": null,
            "validSortFields": null,
            "offset": 0,
            "start": 1,
            "end": 20,
            "sortFieldValid": false,
            "totalPage": 0,
            "maxPageNumber": 1,
            "previousPageNumber": 1,
            "nextPageNumber": 1
        },
        {
            "maxPageSize": 100,
            "pagesize": 20,
            "page": 1,
            "total": 0,
            "sort": null,
            "order": "DESC",
            "paramsMap": {},
            "profileId": null,
            "id": 230,
            "demandId": 210,
            "bizMethod": "UPDATE_PAYMENT_COMPANY",
            "bizData": "{\"dateStr\": \"913\", \"createdBy\": \"ITzhichi\", \"profileId\": \"10203\", \"updatedBy\": \"ITzhichi\", \"createdTime\": 1536835698811, \"lineOrderNo\": null, \"operationBy\": null, \"updatedTime\": 1536835698811, \"trailerOrderNo\": \"DXT43767777059427\", \"paymentCompanyName\": \"法国\"}",
            "processIndex": 1,
            "processState": 12,
            "createdTime": "2018-09-13 18:48:19",
            "createdBy": "ITzhichi",
            "defaultSort": null,
            "validSortFields": null,
            "offset": 0,
            "start": 1,
            "end": 20,
            "sortFieldValid": false,
            "totalPage": 0,
            "maxPageNumber": 1,
            "previousPageNumber": 1,
            "nextPageNumber": 1
        },
        {
            "maxPageSize": 100,
            "pagesize": 20,
            "page": 1,
            "total": 0,
            "sort": null,
            "order": "DESC",
            "paramsMap": {},
            "profileId": null,
            "id": 229,
            "demandId": 209,
            "bizMethod": "UPDATE_VENDOR_COMPANY",
            "bizData": "{\"dateStr\": \"913\", \"createdBy\": \"ITzhichi\", \"profileId\": \"18860\", \"updatedBy\": \"ITzhichi\", \"createdTime\": 1536835632739, \"operationBy\": null, \"updatedTime\": 1536835632739, \"truckOrderNo\": null, \"trailerOrderNo\": \"DXT44966783699427\", \"paymentCompanyName\": \"阿迪达斯体育\"}",
            "processIndex": 1,
            "processState": 12,
            "createdTime": "2018-09-13 18:47:13",
            "createdBy": "ITzhichi",
            "defaultSort": null,
            "validSortFields": null,
            "offset": 0,
            "start": 1,
            "end": 20,
            "sortFieldValid": false,
            "totalPage": 0,
            "maxPageNumber": 1,
            "previousPageNumber": 1,
            "nextPageNumber": 1
        },
        {
            "maxPageSize": 100,
            "pagesize": 20,
            "page": 1,
            "total": 0,
            "sort": null,
            "order": "DESC",
            "paramsMap": {},
            "profileId": null,
            "id": 228,
            "demandId": 208,
            "bizMethod": "UPDATE_VENDOR_COMPANY",
            "bizData": "{\"dateStr\": \"913\", \"createdBy\": \"ITzhichi\", \"profileId\": \"18860\", \"updatedBy\": \"ITzhichi\", \"createdTime\": 1536835535508, \"operationBy\": null, \"updatedTime\": 1536835535508, \"truckOrderNo\": \"DXT44966783699427\", \"trailerOrderNo\": null, \"paymentCompanyName\": \"阿迪达斯体育\"}",
            "processIndex": 1,
            "processState": 12,
            "createdTime": "2018-09-13 18:45:36",
            "createdBy": "ITzhichi",
            "defaultSort": null,
            "validSortFields": null,
            "offset": 0,
            "start": 1,
            "end": 20,
            "sortFieldValid": false,
            "totalPage": 0,
            "maxPageNumber": 1,
            "previousPageNumber": 1,
            "nextPageNumber": 1
        },
        {
            "maxPageSize": 100,
            "pagesize": 20,
            "page": 1,
            "total": 0,
            "sort": null,
            "order": "DESC",
            "paramsMap": {},
            "profileId": null,
            "id": 227,
            "demandId": 207,
            "bizMethod": "UPDATE_PAYMENT_COMPANY",
            "bizData": "{\"dateStr\": \"913\", \"createdBy\": \"ITzhichi\", \"profileId\": \"10203\", \"updatedBy\": \"ITzhichi\", \"createdTime\": 1536835458671, \"lineOrderNo\": \"GXC43767738929427\", \"operationBy\": null, \"updatedTime\": 1536835458671, \"trailerOrderNo\": null, \"paymentCompanyName\": \"法国\"}",
            "processIndex": 1,
            "processState": 12,
            "createdTime": "2018-09-13 18:44:19",
            "createdBy": "ITzhichi",
            "defaultSort": null,
            "validSortFields": null,
            "offset": 0,
            "start": 1,
            "end": 20,
            "sortFieldValid": false,
            "totalPage": 0,
            "maxPageNumber": 1,
            "previousPageNumber": 1,
            "nextPageNumber": 1
        },
        {
            "maxPageSize": 100,
            "pagesize": 20,
            "page": 1,
            "total": 0,
            "sort": null,
            "order": "DESC",
            "paramsMap": {},
            "profileId": null,
            "id": 226,
            "demandId": 206,
            "bizMethod": "UPDATE_VENDOR_COMPANY",
            "bizData": "{\"dateStr\": \"913\", \"createdBy\": \"ITzhichi\", \"profileId\": \"18860\", \"updatedBy\": \"ITzhichi\", \"createdTime\": 1536835410191, \"operationBy\": null, \"updatedTime\": 1536835410191, \"truckOrderNo\": \"GXC43767738929427\", \"trailerOrderNo\": null, \"paymentCompanyName\": \"阿迪达斯体育\"}",
            "processIndex": 1,
            "processState": 12,
            "createdTime": "2018-09-13 18:43:30",
            "createdBy": "ITzhichi",
            "defaultSort": null,
            "validSortFields": null,
            "offset": 0,
            "start": 1,
            "end": 20,
            "sortFieldValid": false,
            "totalPage": 0,
            "maxPageNumber": 1,
            "previousPageNumber": 1,
            "nextPageNumber": 1
        },
        {
            "maxPageSize": 100,
            "pagesize": 20,
            "page": 1,
            "total": 0,
            "sort": null,
            "order": "DESC",
            "paramsMap": {},
            "profileId": null,
            "id": 225,
            "demandId": 205,
            "bizMethod": "UPDATE_PAYMENT_COMPANY",
            "bizData": "{\"dateStr\": \"913\", \"createdBy\": \"ITzhichi\", \"profileId\": \"18860\", \"updatedBy\": \"ITzhichi\", \"createdTime\": 1536835358017, \"lineOrderNo\": \"GXC43767738929427\", \"operationBy\": null, \"updatedTime\": 1536835358017, \"trailerOrderNo\": null, \"paymentCompanyName\": \"阿迪达斯体育\"}",
            "processIndex": 1,
            "processState": 12,
            "createdTime": "2018-09-13 18:42:38",
            "createdBy": "ITzhichi",
            "defaultSort": null,
            "validSortFields": null,
            "offset": 0,
            "start": 1,
            "end": 20,
            "sortFieldValid": false,
            "totalPage": 0,
            "maxPageNumber": 1,
            "previousPageNumber": 1,
            "nextPageNumber": 1
        },
        {
            "maxPageSize": 100,
            "pagesize": 20,
            "page": 1,
            "total": 0,
            "sort": null,
            "order": "DESC",
            "paramsMap": {},
            "profileId": null,
            "id": 224,
            "demandId": 204,
            "bizMethod": "UPDATE_VENDOR_COMPANY",
            "bizData": "{\"dateStr\": \"913\", \"createdBy\": \"ITzhichi\", \"profileId\": \"18860\", \"updatedBy\": \"ITzhichi\", \"createdTime\": 1536835120921, \"operationBy\": null, \"updatedTime\": 1536835120921, \"truckOrderNo\": \"GXC42951696999418\", \"trailerOrderNo\": null, \"paymentCompanyName\": \"阿迪达斯体育\"}",
            "processIndex": 1,
            "processState": 12,
            "createdTime": "2018-09-13 18:38:41",
            "createdBy": "ITzhichi",
            "defaultSort": null,
            "validSortFields": null,
            "offset": 0,
            "start": 1,
            "end": 20,
            "sortFieldValid": false,
            "totalPage": 0,
            "maxPageNumber": 1,
            "previousPageNumber": 1,
            "nextPageNumber": 1
        }
    ]
}